<?xml version="1.0" encoding="UTF-8" ?>

<svg version="1.1"
  xmlns="http://www.w3.org/2000/svg"
  height="128"
  width="128"
  viewBox="0 0 35 35">
  <g>
    <rect
      y="0"
      x="0"
      height="35"
      width="35"
      fill="#010101" />
    <g>
      <path
        fill="#ffffff"
        d="m 19.4792,11.498 h -4.2418 v 9.3472 c 0,2.1082 -1.5494,3.2512 -3.8608,3.2512 -2.5908001,0 -3.4036001,-1.143 -3.4036001,-3.0734 V 11.498 H 3.7312 v 9.7536 c -0.0254,3.937 2.1589999,6.5024 7.0104,6.5024 1.7526,0 3.4036,-0.5842 4.445,-1.6256 h 0.0508 v 1.397 h 4.2418 z" />
      <path
        fill="#f2a365"
        d="m 31.188568,6.9260003 h -3.5814 l -5.5372,5.4863997 2.667,2.7686 1.1176,-1.1176 1.1938,-1.651 h 0.0508 l -0.2032,2.0828 -0.0254,13.0048 h 4.318 z" />
    </g>
  </g>
</svg>
